<?xml version="1.0" encoding="UTF-8"?>
<session version="1.0">
<refactoring accessors="true" comment="Delete element from project &apos;product&apos;&#x0D;&#x0A;- Original project: &apos;product&apos;&#x0D;&#x0A;- Original element: &apos;com.ts.product.ProductControleer.java&apos;" description="Delete element" element1="/src\/main\/java&lt;com.ts.product{ProductControleer.java" elements="1" flags="589830" id="org.eclipse.jdt.ui.delete" resources="0" stamp="1705551812625" subPackages="false" version="1.0"/>
</session>